{
  "appId": "com.ionic.capacitor.translate",
  "appName": "sidemenu-translate",
  "bundledWebRuntime": false,
  "npmClient": "npm",
  "webDir": "www",
  "plugins": {
    "SplashScreen": {
      "launchShowDuration": 0
    }
  },
  "cordova": {}
}
